^C:\USERS\USER\SOURCE\REPOS\LESSON 5\LESSON 5\DEBUG\ARROW.OBJ|C:\USERS\USER\SOURCE\REPOS\LESSON 5\LESSON 5\DEBUG\CIRCLE.OBJ|C:\USERS\USER\SOURCE\REPOS\LESSON 5\LESSON 5\DEBUG\MAIN.OBJ|C:\USERS\USER\SOURCE\REPOS\LESSON 5\LESSON 5\DEBUG\MENU.OBJ|C:\USERS\USER\SOURCE\REPOS\LESSON 5\LESSON 5\DEBUG\POINT.OBJ|C:\USERS\USER\SOURCE\REPOS\LESSON 5\LESSON 5\DEBUG\POLYGON.OBJ|C:\USERS\USER\SOURCE\REPOS\LESSON 5\LESSON 5\DEBUG\RECTANGLE.OBJ|C:\USERS\USER\SOURCE\REPOS\LESSON 5\LESSON 5\DEBUG\SHAPE.OBJ|C:\USERS\USER\SOURCE\REPOS\LESSON 5\LESSON 5\DEBUG\TRIANGLE.OBJ
C:\WINDOWS\GLOBALIZATION\SORTING\SORTDEFAULT.NLS
C:\PROGRAM FILES (X86)\WINDOWS KITS\10\LIB\10.0.16299.0\UM\X86\KERNEL32.LIB
C:\PROGRAM FILES (X86)\WINDOWS KITS\10\LIB\10.0.16299.0\UM\X86\USER32.LIB
C:\PROGRAM FILES (X86)\WINDOWS KITS\10\LIB\10.0.16299.0\UM\X86\GDI32.LIB
C:\PROGRAM FILES (X86)\WINDOWS KITS\10\LIB\10.0.16299.0\UM\X86\WINSPOOL.LIB
C:\PROGRAM FILES (X86)\WINDOWS KITS\10\LIB\10.0.16299.0\UM\X86\COMDLG32.LIB
C:\PROGRAM FILES (X86)\WINDOWS KITS\10\LIB\10.0.16299.0\UM\X86\ADVAPI32.LIB
C:\PROGRAM FILES (X86)\WINDOWS KITS\10\LIB\10.0.16299.0\UM\X86\SHELL32.LIB
C:\PROGRAM FILES (X86)\WINDOWS KITS\10\LIB\10.0.16299.0\UM\X86\OLE32.LIB
C:\PROGRAM FILES (X86)\WINDOWS KITS\10\LIB\10.0.16299.0\UM\X86\OLEAUT32.LIB
C:\PROGRAM FILES (X86)\WINDOWS KITS\10\LIB\10.0.16299.0\UM\X86\UUID.LIB
C:\PROGRAM FILES (X86)\WINDOWS KITS\10\LIB\10.0.16299.0\UM\X86\ODBC32.LIB
C:\PROGRAM FILES (X86)\WINDOWS KITS\10\LIB\10.0.16299.0\UM\X86\ODBCCP32.LIB
C:\USERS\USER\SOURCE\REPOS\LESSON 5\LESSON 5\DEBUG\ARROW.OBJ
C:\USERS\USER\SOURCE\REPOS\LESSON 5\LESSON 5\DEBUG\CIRCLE.OBJ
C:\USERS\USER\SOURCE\REPOS\LESSON 5\LESSON 5\DEBUG\MAIN.OBJ
C:\USERS\USER\SOURCE\REPOS\LESSON 5\LESSON 5\DEBUG\MENU.OBJ
C:\USERS\USER\SOURCE\REPOS\LESSON 5\LESSON 5\DEBUG\POINT.OBJ
C:\USERS\USER\SOURCE\REPOS\LESSON 5\LESSON 5\DEBUG\POLYGON.OBJ
C:\USERS\USER\SOURCE\REPOS\LESSON 5\LESSON 5\DEBUG\RECTANGLE.OBJ
C:\USERS\USER\SOURCE\REPOS\LESSON 5\LESSON 5\DEBUG\SHAPE.OBJ
C:\USERS\USER\SOURCE\REPOS\LESSON 5\LESSON 5\DEBUG\TRIANGLE.OBJ
C:\WINDOWS\SYSTEM32\TZRES.DLL
C:\PROGRAM FILES (X86)\MICROSOFT VISUAL STUDIO\2017\COMMUNITY\VC\TOOLS\MSVC\14.12.25827\LIB\X86\MSVCPRTD.LIB
C:\PROGRAM FILES (X86)\MICROSOFT VISUAL STUDIO\2017\COMMUNITY\VC\TOOLS\MSVC\14.12.25827\LIB\X86\MSVCRTD.LIB
C:\PROGRAM FILES (X86)\MICROSOFT VISUAL STUDIO\2017\COMMUNITY\VC\TOOLS\MSVC\14.12.25827\LIB\X86\OLDNAMES.LIB
C:\PROGRAM FILES (X86)\MICROSOFT VISUAL STUDIO\2017\COMMUNITY\VC\TOOLS\MSVC\14.12.25827\LIB\X86\VCRUNTIMED.LIB
C:\PROGRAM FILES (X86)\WINDOWS KITS\10\LIB\10.0.16299.0\UCRT\X86\UCRTD.LIB
